%YAML 1.1
%TAG !u! tag:unity3d.com,2011:
--- !u!1 &4042184545849932686
GameObject:
  m_ObjectHideFlags: 0
  m_CorrespondingSourceObject: {fileID: 0}
  m_PrefabInstance: {fileID: 0}
  m_PrefabAsset: {fileID: 0}
  serializedVersion: 6
  m_Component:
  - component: {fileID: 6384828684425198687}
  m_Layer: 2
  m_Name: CharSit_x2
  m_TagString: Untagged
  m_Icon: {fileID: 0}
  m_NavMeshLayer: 0
  m_StaticEditorFlags: 0
  m_IsActive: 1
--- !u!4 &6384828684425198687
Transform:
  m_ObjectHideFlags: 0
  m_CorrespondingSourceObject: {fileID: 0}
  m_PrefabInstance: {fileID: 0}
  m_PrefabAsset: {fileID: 0}
  m_GameObject: {fileID: 4042184545849932686}
  m_LocalRotation: {x: -0, y: -0, z: -0, w: 1}
  m_LocalPosition: {x: 0, y: 0, z: 0}
  m_LocalScale: {x: 1, y: 1, z: 1}
  m_Children:
  - {fileID: 7847166282498544138}
  - {fileID: 3920491697275940847}
  m_Father: {fileID: 0}
  m_RootOrder: 0
  m_LocalEulerAnglesHint: {x: 0, y: 0, z: 0}
--- !u!1001 &2827560279609849366
PrefabInstance:
  m_ObjectHideFlags: 0
  serializedVersion: 2
  m_Modification:
    m_TransformParent: {fileID: 6384828684425198687}
    m_Modifications:
    - target: {fileID: 1249152388152302071, guid: 73a7e3594972c484f9fb5816d370fac9,
        type: 3}
      propertyPath: m_Name
      value: Character-Sitting (1)
      objectReference: {fileID: 0}
    - target: {fileID: 1249152388152302073, guid: 73a7e3594972c484f9fb5816d370fac9,
        type: 3}
      propertyPath: m_RootOrder
      value: 1
      objectReference: {fileID: 0}
    - target: {fileID: 1249152388152302073, guid: 73a7e3594972c484f9fb5816d370fac9,
        type: 3}
      propertyPath: m_LocalPosition.x
      value: -0.75
      objectReference: {fileID: 0}
    - target: {fileID: 1249152388152302073, guid: 73a7e3594972c484f9fb5816d370fac9,
        type: 3}
      propertyPath: m_LocalPosition.y
      value: 0
      objectReference: {fileID: 0}
    - target: {fileID: 1249152388152302073, guid: 73a7e3594972c484f9fb5816d370fac9,
        type: 3}
      propertyPath: m_LocalPosition.z
      value: 0
      objectReference: {fileID: 0}
    - target: {fileID: 1249152388152302073, guid: 73a7e3594972c484f9fb5816d370fac9,
        type: 3}
      propertyPath: m_LocalRotation.w
      value: 1
      objectReference: {fileID: 0}
    - target: {fileID: 1249152388152302073, guid: 73a7e3594972c484f9fb5816d370fac9,
        type: 3}
      propertyPath: m_LocalRotation.x
      value: -0
      objectReference: {fileID: 0}
    - target: {fileID: 1249152388152302073, guid: 73a7e3594972c484f9fb5816d370fac9,
        type: 3}
      propertyPath: m_LocalRotation.y
      value: -0
      objectReference: {fileID: 0}
    - target: {fileID: 1249152388152302073, guid: 73a7e3594972c484f9fb5816d370fac9,
        type: 3}
      propertyPath: m_LocalRotation.z
      value: -0
      objectReference: {fileID: 0}
    - target: {fileID: 1249152388152302073, guid: 73a7e3594972c484f9fb5816d370fac9,
        type: 3}
      propertyPath: m_LocalEulerAnglesHint.x
      value: 0
      objectReference: {fileID: 0}
    - target: {fileID: 1249152388152302073, guid: 73a7e3594972c484f9fb5816d370fac9,
        type: 3}
      propertyPath: m_LocalEulerAnglesHint.y
      value: 0
      objectReference: {fileID: 0}
    - target: {fileID: 1249152388152302073, guid: 73a7e3594972c484f9fb5816d370fac9,
        type: 3}
      propertyPath: m_LocalEulerAnglesHint.z
      value: 0
      objectReference: {fileID: 0}
    m_RemovedComponents: []
  m_SourcePrefab: {fileID: 100100000, guid: 73a7e3594972c484f9fb5816d370fac9, type: 3}
--- !u!4 &3920491697275940847 stripped
Transform:
  m_CorrespondingSourceObject: {fileID: 1249152388152302073, guid: 73a7e3594972c484f9fb5816d370fac9,
    type: 3}
  m_PrefabInstance: {fileID: 2827560279609849366}
  m_PrefabAsset: {fileID: 0}
--- !u!1001 &9057685886226500595
PrefabInstance:
  m_ObjectHideFlags: 0
  serializedVersion: 2
  m_Modification:
    m_TransformParent: {fileID: 6384828684425198687}
    m_Modifications:
    - target: {fileID: 1249152388152302071, guid: 73a7e3594972c484f9fb5816d370fac9,
        type: 3}
      propertyPath: m_Name
      value: Character-Sitting
      objectReference: {fileID: 0}
    - target: {fileID: 1249152388152302073, guid: 73a7e3594972c484f9fb5816d370fac9,
        type: 3}
      propertyPath: m_RootOrder
      value: 0
      objectReference: {fileID: 0}
    - target: {fileID: 1249152388152302073, guid: 73a7e3594972c484f9fb5816d370fac9,
        type: 3}
      propertyPath: m_LocalPosition.x
      value: 0
      objectReference: {fileID: 0}
    - target: {fileID: 1249152388152302073, guid: 73a7e3594972c484f9fb5816d370fac9,
        type: 3}
      propertyPath: m_LocalPosition.y
      value: 0
      objectReference: {fileID: 0}
    - target: {fileID: 1249152388152302073, guid: 73a7e3594972c484f9fb5816d370fac9,
        type: 3}
      propertyPath: m_LocalPosition.z
      value: 0
      objectReference: {fileID: 0}
    - target: {fileID: 1249152388152302073, guid: 73a7e3594972c484f9fb5816d370fac9,
        type: 3}
      propertyPath: m_LocalRotation.w
      value: 1
      objectReference: {fileID: 0}
    - target: {fileID: 1249152388152302073, guid: 73a7e3594972c484f9fb5816d370fac9,
        type: 3}
      propertyPath: m_LocalRotation.x
      value: -0
      objectReference: {fileID: 0}
    - target: {fileID: 1249152388152302073, guid: 73a7e3594972c484f9fb5816d370fac9,
        type: 3}
      propertyPath: m_LocalRotation.y
      value: -0
      objectReference: {fileID: 0}
    - target: {fileID: 1249152388152302073, guid: 73a7e3594972c484f9fb5816d370fac9,
        type: 3}
      propertyPath: m_LocalRotation.z
      value: -0
      objectReference: {fileID: 0}
    - target: {fileID: 1249152388152302073, guid: 73a7e3594972c484f9fb5816d370fac9,
        type: 3}
      propertyPath: m_LocalEulerAnglesHint.x
      value: 0
      objectReference: {fileID: 0}
    - target: {fileID: 1249152388152302073, guid: 73a7e3594972c484f9fb5816d370fac9,
        type: 3}
      propertyPath: m_LocalEulerAnglesHint.y
      value: 0
      objectReference: {fileID: 0}
    - target: {fileID: 1249152388152302073, guid: 73a7e3594972c484f9fb5816d370fac9,
        type: 3}
      propertyPath: m_LocalEulerAnglesHint.z
      value: 0
      objectReference: {fileID: 0}
    m_RemovedComponents: []
  m_SourcePrefab: {fileID: 100100000, guid: 73a7e3594972c484f9fb5816d370fac9, type: 3}
--- !u!4 &7847166282498544138 stripped
Transform:
  m_CorrespondingSourceObject: {fileID: 1249152388152302073, guid: 73a7e3594972c484f9fb5816d370fac9,
    type: 3}
  m_PrefabInstance: {fileID: 9057685886226500595}
  m_PrefabAsset: {fileID: 0}
