%YAML 1.1
%TAG !u! tag:unity3d.com,2011:
--- !u!1 &8539341463698361143
GameObject:
  m_ObjectHideFlags: 0
  m_CorrespondingSourceObject: {fileID: 0}
  m_PrefabInstance: {fileID: 0}
  m_PrefabAsset: {fileID: 0}
  serializedVersion: 6
  m_Component:
  - component: {fileID: 8471365030921726630}
  m_Layer: 2
  m_Name: CharStand_x2
  m_TagString: Untagged
  m_Icon: {fileID: 0}
  m_NavMeshLayer: 0
  m_StaticEditorFlags: 0
  m_IsActive: 1
--- !u!4 &8471365030921726630
Transform:
  m_ObjectHideFlags: 0
  m_CorrespondingSourceObject: {fileID: 0}
  m_PrefabInstance: {fileID: 0}
  m_PrefabAsset: {fileID: 0}
  m_GameObject: {fileID: 8539341463698361143}
  m_LocalRotation: {x: -0, y: -0, z: -0, w: 1}
  m_LocalPosition: {x: 0, y: 0, z: 0}
  m_LocalScale: {x: 1, y: 1, z: 1}
  m_Children:
  - {fileID: 7290289615871984347}
  - {fileID: 5313171290807146655}
  m_Father: {fileID: 0}
  m_RootOrder: 0
  m_LocalEulerAnglesHint: {x: 0, y: 0, z: 0}
--- !u!1001 &4798836717188665631
PrefabInstance:
  m_ObjectHideFlags: 0
  serializedVersion: 2
  m_Modification:
    m_TransformParent: {fileID: 8471365030921726630}
    m_Modifications:
    - target: {fileID: 2861100049291875268, guid: bb5f5b3c38b3046429cabc9eef8e07e7,
        type: 3}
      propertyPath: m_RootOrder
      value: 0
      objectReference: {fileID: 0}
    - target: {fileID: 2861100049291875268, guid: bb5f5b3c38b3046429cabc9eef8e07e7,
        type: 3}
      propertyPath: m_LocalPosition.x
      value: 0
      objectReference: {fileID: 0}
    - target: {fileID: 2861100049291875268, guid: bb5f5b3c38b3046429cabc9eef8e07e7,
        type: 3}
      propertyPath: m_LocalPosition.y
      value: 0
      objectReference: {fileID: 0}
    - target: {fileID: 2861100049291875268, guid: bb5f5b3c38b3046429cabc9eef8e07e7,
        type: 3}
      propertyPath: m_LocalPosition.z
      value: 0
      objectReference: {fileID: 0}
    - target: {fileID: 2861100049291875268, guid: bb5f5b3c38b3046429cabc9eef8e07e7,
        type: 3}
      propertyPath: m_LocalRotation.w
      value: 1
      objectReference: {fileID: 0}
    - target: {fileID: 2861100049291875268, guid: bb5f5b3c38b3046429cabc9eef8e07e7,
        type: 3}
      propertyPath: m_LocalRotation.x
      value: -0
      objectReference: {fileID: 0}
    - target: {fileID: 2861100049291875268, guid: bb5f5b3c38b3046429cabc9eef8e07e7,
        type: 3}
      propertyPath: m_LocalRotation.y
      value: -0
      objectReference: {fileID: 0}
    - target: {fileID: 2861100049291875268, guid: bb5f5b3c38b3046429cabc9eef8e07e7,
        type: 3}
      propertyPath: m_LocalRotation.z
      value: -0
      objectReference: {fileID: 0}
    - target: {fileID: 2861100049291875268, guid: bb5f5b3c38b3046429cabc9eef8e07e7,
        type: 3}
      propertyPath: m_LocalEulerAnglesHint.x
      value: 0
      objectReference: {fileID: 0}
    - target: {fileID: 2861100049291875268, guid: bb5f5b3c38b3046429cabc9eef8e07e7,
        type: 3}
      propertyPath: m_LocalEulerAnglesHint.y
      value: 0
      objectReference: {fileID: 0}
    - target: {fileID: 2861100049291875268, guid: bb5f5b3c38b3046429cabc9eef8e07e7,
        type: 3}
      propertyPath: m_LocalEulerAnglesHint.z
      value: 0
      objectReference: {fileID: 0}
    - target: {fileID: 4155687007859735671, guid: bb5f5b3c38b3046429cabc9eef8e07e7,
        type: 3}
      propertyPath: m_Name
      value: Character-Standing
      objectReference: {fileID: 0}
    m_RemovedComponents: []
  m_SourcePrefab: {fileID: 100100000, guid: bb5f5b3c38b3046429cabc9eef8e07e7, type: 3}
--- !u!4 &7290289615871984347 stripped
Transform:
  m_CorrespondingSourceObject: {fileID: 2861100049291875268, guid: bb5f5b3c38b3046429cabc9eef8e07e7,
    type: 3}
  m_PrefabInstance: {fileID: 4798836717188665631}
  m_PrefabAsset: {fileID: 0}
--- !u!1001 &7928734982996495195
PrefabInstance:
  m_ObjectHideFlags: 0
  serializedVersion: 2
  m_Modification:
    m_TransformParent: {fileID: 8471365030921726630}
    m_Modifications:
    - target: {fileID: 2861100049291875268, guid: bb5f5b3c38b3046429cabc9eef8e07e7,
        type: 3}
      propertyPath: m_RootOrder
      value: 1
      objectReference: {fileID: 0}
    - target: {fileID: 2861100049291875268, guid: bb5f5b3c38b3046429cabc9eef8e07e7,
        type: 3}
      propertyPath: m_LocalPosition.x
      value: -0.75
      objectReference: {fileID: 0}
    - target: {fileID: 2861100049291875268, guid: bb5f5b3c38b3046429cabc9eef8e07e7,
        type: 3}
      propertyPath: m_LocalPosition.y
      value: 0
      objectReference: {fileID: 0}
    - target: {fileID: 2861100049291875268, guid: bb5f5b3c38b3046429cabc9eef8e07e7,
        type: 3}
      propertyPath: m_LocalPosition.z
      value: 0
      objectReference: {fileID: 0}
    - target: {fileID: 2861100049291875268, guid: bb5f5b3c38b3046429cabc9eef8e07e7,
        type: 3}
      propertyPath: m_LocalRotation.w
      value: 1
      objectReference: {fileID: 0}
    - target: {fileID: 2861100049291875268, guid: bb5f5b3c38b3046429cabc9eef8e07e7,
        type: 3}
      propertyPath: m_LocalRotation.x
      value: -0
      objectReference: {fileID: 0}
    - target: {fileID: 2861100049291875268, guid: bb5f5b3c38b3046429cabc9eef8e07e7,
        type: 3}
      propertyPath: m_LocalRotation.y
      value: -0
      objectReference: {fileID: 0}
    - target: {fileID: 2861100049291875268, guid: bb5f5b3c38b3046429cabc9eef8e07e7,
        type: 3}
      propertyPath: m_LocalRotation.z
      value: -0
      objectReference: {fileID: 0}
    - target: {fileID: 2861100049291875268, guid: bb5f5b3c38b3046429cabc9eef8e07e7,
        type: 3}
      propertyPath: m_LocalEulerAnglesHint.x
      value: 0
      objectReference: {fileID: 0}
    - target: {fileID: 2861100049291875268, guid: bb5f5b3c38b3046429cabc9eef8e07e7,
        type: 3}
      propertyPath: m_LocalEulerAnglesHint.y
      value: 0
      objectReference: {fileID: 0}
    - target: {fileID: 2861100049291875268, guid: bb5f5b3c38b3046429cabc9eef8e07e7,
        type: 3}
      propertyPath: m_LocalEulerAnglesHint.z
      value: 0
      objectReference: {fileID: 0}
    - target: {fileID: 4155687007859735671, guid: bb5f5b3c38b3046429cabc9eef8e07e7,
        type: 3}
      propertyPath: m_Name
      value: Character-Standing (1)
      objectReference: {fileID: 0}
    m_RemovedComponents: []
  m_SourcePrefab: {fileID: 100100000, guid: bb5f5b3c38b3046429cabc9eef8e07e7, type: 3}
--- !u!4 &5313171290807146655 stripped
Transform:
  m_CorrespondingSourceObject: {fileID: 2861100049291875268, guid: bb5f5b3c38b3046429cabc9eef8e07e7,
    type: 3}
  m_PrefabInstance: {fileID: 7928734982996495195}
  m_PrefabAsset: {fileID: 0}
