%YAML 1.1
%TAG !u! tag:unity3d.com,2011:
--- !u!21 &2100000
Material:
  serializedVersion: 6
  m_ObjectHideFlags: 0
  m_CorrespondingSourceObject: {fileID: 0}
  m_PrefabInstance: {fileID: 0}
  m_PrefabAsset: {fileID: 0}
  m_Name: TS_StageGround_Orange
  m_Shader: {fileID: -6465566751694194690, guid: 7f0f3711ee1e66c47a389cf63f99d9f6,
    type: 3}
  m_ShaderKeywords: _PROJECTIONAXIS_XZ
  m_LightmapFlags: 4
  m_EnableInstancingVariants: 1
  m_DoubleSidedGI: 0
  m_CustomRenderQueue: -1
  stringTagMap: {}
  disabledShaderPasses: []
  m_SavedProperties:
    serializedVersion: 3
    m_TexEnvs:
    - Texture2D_EA25EAA3:
        m_Texture: {fileID: 0}
        m_Scale: {x: 1, y: 1}
        m_Offset: {x: 0, y: 0}
    m_Floats:
    - Vector1_832187C4: 1
    - Vector1_9B318B02: 100
    - Vector1_A0B49503: 0
    - Vector1_B100CCE8: 10
    - Vector1_D121155D: 0.4
    - _AR_1x: 59.3
    - _EXTRUDE: 0
    - _GridActive: 1
    - _PROJECTIONAXIS: 0
    m_Colors:
    - _GridColor: {r: 0.21960784, g: 0.21960784, b: 0.21960784, a: 0}
    - _GridFO: {r: 20, g: 0, b: 0, a: 0}
    - _GridLighterColor: {r: 1, g: 1, b: 1, a: 0}
    - _PlayerPos: {r: 0, g: 0, b: 0, a: 0}
    - _TintColor: {r: 0.6226415, g: 0.47138664, b: 0.32013172, a: 0}
