%YAML 1.1
%TAG !u! tag:unity3d.com,2011:
--- !u!21 &2100000
Material:
  serializedVersion: 6
  m_ObjectHideFlags: 0
  m_CorrespondingSourceObject: {fileID: 0}
  m_PrefabInstance: {fileID: 0}
  m_PrefabAsset: {fileID: 0}
  m_Name: TS_Menu-Rendering
  m_Shader: {fileID: -6465566751694194690, guid: fbb233a0aa85d0c45b9c694723a28c4f,
    type: 3}
  m_ShaderKeywords: 
  m_LightmapFlags: 4
  m_EnableInstancingVariants: 0
  m_DoubleSidedGI: 0
  m_CustomRenderQueue: -1
  stringTagMap: {}
  disabledShaderPasses: []
  m_SavedProperties:
    serializedVersion: 3
    m_TexEnvs:
    - Texture2D_F1D1A54B:
        m_Texture: {fileID: 2800000, guid: fbfc0a5c7dc8e3b4b854bc639a4557d2, type: 3}
        m_Scale: {x: 1, y: 1}
        m_Offset: {x: 0, y: 0}
    m_Floats:
    - Vector1_59AB3E68: 0.55
    m_Colors:
    - Vector4_862C5F18: {r: 0.15, g: 3.39, b: 0, a: 0.45}
    - _MainColor: {r: 0.42452827, g: 0.42452827, b: 0.42452827, a: 0}
    - _MenuGlowColor: {r: 4.237095, g: 3.9487062, b: 0.84298223, a: 0}
